module gitlab.com/gitlab-org/opstrace/fibdemo

go 1.21.4

require (
	github.com/gin-contrib/zap v1.1.0
	github.com/gin-gonic/gin v1.9.1
	github.com/go-logr/zapr v1.3.0
	github.com/prometheus/client_golang v1.19.0
	go.opentelemetry.io/contrib/propagators/jaeger v1.24.0
	go.opentelemetry.io/otel v1.24.0
	go.opentelemetry.io/otel/exporters/otlp/otlpmetric/otlpmetrichttp v1.24.0
	go.opentelemetry.io/otel/exporters/otlp/otlptrace/otlptracehttp v1.24.0
	go.opentelemetry.io/otel/exporters/prometheus v0.46.0
	go.opentelemetry.io/otel/metric v1.24.0
	go.opentelemetry.io/otel/sdk v1.24.0
	go.opentelemetry.io/otel/sdk/metric v1.24.0
	go.opentelemetry.io/otel/trace v1.24.0
	go.uber.org/zap v1.27.0
)

require (
	github.com/beorn7/perks v1.0.1 // indirect
	github.com/bytedance/sonic v1.11.2 // indirect
	github.com/cenkalti/backoff/v4 v4.2.1 // indirect
	github.com/cespare/xxhash/v2 v2.2.0 // indirect
	github.com/chenzhuoyu/base64x v0.0.0-20230717121745-296ad89f973d // indirect
	github.com/chenzhuoyu/iasm v0.9.1 // indirect
	github.com/gabriel-vasile/mimetype v1.4.3 // indirect
	github.com/gin-contrib/sse v0.1.0 // indirect
	github.com/go-logr/logr v1.4.1 // indirect
	github.com/go-logr/stdr v1.2.2 // indirect
	github.com/go-playground/locales v0.14.1 // indirect
	github.com/go-playground/universal-translator v0.18.1 // indirect
	github.com/go-playground/validator/v10 v10.18.0 // indirect
	github.com/goccy/go-json v0.10.2 // indirect
	github.com/golang/protobuf v1.5.3 // indirect
	github.com/grpc-ecosystem/grpc-gateway/v2 v2.19.0 // indirect
	github.com/json-iterator/go v1.1.12 // indirect
	github.com/klauspost/cpuid/v2 v2.2.7 // indirect
	github.com/leodido/go-urn v1.4.0 // indirect
	github.com/mattn/go-isatty v0.0.20 // indirect
	github.com/modern-go/concurrent v0.0.0-20180306012644-bacd9c7ef1dd // indirect
	github.com/modern-go/reflect2 v1.0.2 // indirect
	github.com/pelletier/go-toml/v2 v2.1.1 // indirect
	github.com/prometheus/client_model v0.6.0 // indirect
	github.com/prometheus/common v0.48.0 // indirect
	github.com/prometheus/procfs v0.12.0 // indirect
	github.com/twitchyliquid64/golang-asm v0.15.1 // indirect
	github.com/ugorji/go/codec v1.2.12 // indirect
	go.opentelemetry.io/otel/exporters/otlp/otlptrace v1.24.0 // indirect
	go.opentelemetry.io/proto/otlp v1.1.0 // indirect
	go.uber.org/multierr v1.11.0 // indirect
	golang.org/x/arch v0.7.0 // indirect
	golang.org/x/crypto v0.20.0 // indirect
	golang.org/x/net v0.21.0 // indirect
	golang.org/x/sys v0.17.0 // indirect
	golang.org/x/text v0.14.0 // indirect
	google.golang.org/genproto/googleapis/api v0.0.0-20240102182953-50ed04b92917 // indirect
	google.golang.org/genproto/googleapis/rpc v0.0.0-20240102182953-50ed04b92917 // indirect
	google.golang.org/grpc v1.61.1 // indirect
	google.golang.org/protobuf v1.32.0 // indirect
	gopkg.in/yaml.v3 v3.0.1 // indirect
)
